<svg width="70" height="70" viewBox="0 0 70 70" fill="none" xmlns="http://www.w3.org/2000/svg">
<path d="M35 0C15.67 0 0 15.67 0 35C0 54.33 15.67 70 35 70C54.33 70 70 54.33 70 35C69.9795 15.6787 54.3215 0.0206543 35 0ZM35 65C18.4314 65 4.99996 51.5686 4.99996 35C4.99996 18.4314 18.4314 4.99996 35 4.99996C51.5686 4.99996 65 18.4314 65 35C64.9822 51.5613 51.5613 64.9822 35 65Z" fill="black"/>
<path d="M35 55C46.0457 55 55 46.0457 55 35C55 23.9543 46.0457 15 35 15C23.9544 15 15.0001 23.9543 15.0001 35C15.0001 46.0457 23.9544 55 35 55Z" fill="black"/>
</svg>
