<svg width="353" height="70" viewBox="0 0 353 70" fill="none" xmlns="http://www.w3.org/2000/svg">
<path d="M35 0C15.67 0 0 15.67 0 35C0 54.33 15.67 70 35 70C54.33 70 70 54.33 70 35C69.9795 15.6787 54.3215 0.0206543 35 0ZM35 65C18.4314 65 4.99996 51.5686 4.99996 35C4.99996 18.4314 18.4314 4.99996 35 4.99996C51.5686 4.99996 65 18.4314 65 35C64.9822 51.5613 51.5613 64.9822 35 65Z" fill="black"/>
<path d="M35 55C46.0457 55 55 46.0457 55 35C55 23.9543 46.0457 15 35 15C23.9544 15 15.0001 23.9543 15.0001 35C15.0001 46.0457 23.9544 55 35 55Z" fill="black"/>
<path d="M109.26 22.792V26.824H102.492V49H98.316V26.824H91.728V22.792H109.26ZM111.949 35.932C111.949 33.532 112.549 31.312 113.749 29.272C114.949 27.208 116.569 25.564 118.609 24.34C120.673 23.116 122.917 22.504 125.341 22.504C127.741 22.504 129.961 23.116 132.001 24.34C134.065 25.564 135.709 27.208 136.933 29.272C138.157 31.336 138.769 33.556 138.769 35.932C138.769 38.356 138.157 40.588 136.933 42.628C135.733 44.668 134.101 46.288 132.037 47.488C129.973 48.688 127.741 49.288 125.341 49.288C122.917 49.288 120.673 48.7 118.609 47.524C116.569 46.324 114.949 44.704 113.749 42.664C112.549 40.624 111.949 38.38 111.949 35.932ZM116.269 35.932C116.269 37.636 116.677 39.196 117.493 40.612C118.309 42.028 119.413 43.156 120.805 43.996C122.221 44.836 123.769 45.256 125.449 45.256C127.105 45.256 128.617 44.848 129.985 44.032C131.353 43.192 132.433 42.064 133.225 40.648C134.041 39.208 134.449 37.636 134.449 35.932C134.449 34.228 134.041 32.656 133.225 31.216C132.409 29.776 131.305 28.636 129.913 27.796C128.521 26.956 126.997 26.536 125.341 26.536C123.661 26.536 122.125 26.956 120.733 27.796C119.365 28.636 118.273 29.776 117.457 31.216C116.665 32.656 116.269 34.228 116.269 35.932ZM171.557 22.792V26.824H164.789V49H160.613V26.824H154.025V22.792H171.557ZM198.197 49H193.985V37.84H181.097V49H176.885V22.792H181.097V33.844H193.985V22.792H198.197V49ZM222.785 22.792V26.824H209.609V33.808H221.345V37.84H209.609V44.968H223.289V49H205.397V22.792H222.785ZM248.039 22.792C251.015 22.792 253.343 23.536 255.023 25.024C256.703 26.512 257.543 28.576 257.543 31.216C257.543 32.728 257.243 34.144 256.643 35.464C256.043 36.76 255.071 37.828 253.727 38.668C252.407 39.484 250.703 39.892 248.615 39.892H244.835V49H240.623V22.792H248.039ZM248.615 35.86C249.767 35.86 250.691 35.62 251.387 35.14C252.107 34.636 252.611 34.036 252.899 33.34C253.211 32.62 253.367 31.936 253.367 31.288C253.367 30.184 253.007 29.164 252.287 28.228C251.591 27.292 250.403 26.824 248.723 26.824H244.835V35.86H248.615ZM261.011 35.932C261.011 33.532 261.611 31.312 262.811 29.272C264.011 27.208 265.631 25.564 267.671 24.34C269.735 23.116 271.979 22.504 274.403 22.504C276.803 22.504 279.023 23.116 281.063 24.34C283.127 25.564 284.771 27.208 285.995 29.272C287.219 31.336 287.831 33.556 287.831 35.932C287.831 38.356 287.219 40.588 285.995 42.628C284.795 44.668 283.163 46.288 281.099 47.488C279.035 48.688 276.803 49.288 274.403 49.288C271.979 49.288 269.735 48.7 267.671 47.524C265.631 46.324 264.011 44.704 262.811 42.664C261.611 40.624 261.011 38.38 261.011 35.932ZM265.331 35.932C265.331 37.636 265.739 39.196 266.555 40.612C267.371 42.028 268.475 43.156 269.867 43.996C271.283 44.836 272.831 45.256 274.511 45.256C276.167 45.256 277.679 44.848 279.047 44.032C280.415 43.192 281.495 42.064 282.287 40.648C283.103 39.208 283.511 37.636 283.511 35.932C283.511 34.228 283.103 32.656 282.287 31.216C281.471 29.776 280.367 28.636 278.975 27.796C277.583 26.956 276.059 26.536 274.403 26.536C272.723 26.536 271.187 26.956 269.795 27.796C268.427 28.636 267.335 29.776 266.519 31.216C265.727 32.656 265.331 34.228 265.331 35.932ZM297.64 22.792V49H293.428V22.792H297.64ZM328.002 22.792V49.936H327.894L308.994 31.612L309.102 49H304.854V21.892H305.07L323.898 40.432L323.826 22.792H328.002ZM350.889 22.792V26.824H344.121V49H339.945V26.824H333.357V22.792H350.889Z" fill="black"/>
</svg>
